<?xml version="1.0" encoding="utf-8"?>
<!-- Generator: Adobe Illustrator 22.1.0, SVG Export Plug-In . SVG Version: 6.00 Build 0)  -->
<svg version="1.1" id="Layer_1" xmlns="http://www.w3.org/2000/svg" xmlns:xlink="http://www.w3.org/1999/xlink" x="0px" y="0px"
	 viewBox="0 0 175 65" style="enable-background:new 0 0 175 65;" xml:space="preserve">
<style type="text/css">
	.st0{fill:#6D318F;}
</style>
<path class="st0" d="M55.445,17.5c3.065,0.224,4.828,2.189,4.793,5.386c-0.068,6.172-0.02,12.345-0.02,18.517v1.213
	c1.243,0,2.416-0.024,3.589,0c1.053,0.027,2.111,0.069,3.158,0.182c1.981,0.221,3.923,2.609,3.602,4.561H55.445V17.5z
	 M50.229,47.353c1.137-1.239,1.642-2.793,1.04-4.485c-0.358-1.008-0.922-1.93-1.655-2.709c-2.491-2.613-5.085-5.125-7.769-7.805
	c0.296-0.204,0.579-0.426,0.848-0.664c2.478-2.463,4.926-4.961,7.422-7.399c2.007-1.963,1.617-5.587,0.049-6.605
	c-4.97,4.968-9.927,9.926-14.801,14.801L50.229,47.353z M143.876,40.772c-2.495-2.495-4.988-4.988-7.481-7.481
	c-0.23-0.232-0.445-0.476-0.708-0.759c0.268-0.286,0.485-0.531,0.715-0.763c2.492-2.494,4.974-5.001,7.481-7.481
	c1.967-1.936,1.697-5.527-0.011-6.601l-14.761,14.773l14.87,14.872c1.783-1.835,1.74-4.768-0.095-6.551
	C143.883,40.779,143.88,40.776,143.876,40.772z M123.49,17.5v29.868c2.007,0.42,4.802-1.839,4.789-4.592
	c-0.033-6.629-0.057-13.257,0.009-19.888C128.326,19.704,126.576,17.73,123.49,17.5z M116.296,43.994
	c-6.713,5.567-16.923,4.485-22.208-3.284c-5.547,7.922-15.54,8.703-21.988,3.43c-6.813-5.559-7.161-14.841-2.361-20.891
	c3.144-3.963,7.295-5.804,12.38-5.642s8.962,2.527,11.98,6.614c3.554-4.914,8.349-7.087,14.305-6.583
	c3.457,0.273,6.683,1.845,9.028,4.401C123.804,28.871,122.631,38.741,116.296,43.994z M91.688,32.726
	c0.113-5.78-4.574-10.431-10.165-10.426c-5.625,0-10.13,4.622-10.17,10.152c-0.046,5.592,4.622,10.298,10.172,10.166
	C87.22,42.695,91.586,37.979,91.688,32.726z M116.838,32.527c0-5.775-4.457-10.115-10.09-10.208
	c-5.632-0.093-9.997,4.487-10.238,9.761c-0.27,5.923,4.857,10.738,10.081,10.539c5.563,0.096,10.149-4.336,10.245-9.899
	C116.838,32.656,116.838,32.591,116.838,32.527z M34.501,42.803c-0.027-6.893,0-13.788-0.013-20.681
	c-0.001-0.3-0.036-0.599-0.104-0.89c-0.451-1.949-1.843-3.583-4.676-3.715v29.837C31.63,47.826,34.512,45.569,34.501,42.803z"/>
</svg>
