<!-- Generated by IcoMoon.io -->
<svg version="1.1" xmlns="http://www.w3.org/2000/svg" width="1008" height="1024" viewBox="0 0 1008 1024">
<title></title>
<g id="icomoon-ignore">
</g>
<path fill="#e0a800" d="M733.642 320.793c-0.88 0.384-1.523 1.165-1.709 2.111l-0.003 0.018c-0.036 0.173-0.056 0.371-0.056 0.574 0 0.811 0.321 1.545 0.842 2.086l-0.001-0.001 90.75 93.646c0.516 0.534 0.835 1.263 0.835 2.066 0 0.147-0.011 0.292-0.032 0.434l0.002-0.016c-0.125 0.931-0.673 1.711-1.441 2.151l-0.014 0.008c-12.344 6.989-55.846 31.888-71.94 44.373-1.984 1.571-8.057-4.079-10.187-5.501l-28.391-19.030c-3.473-2.318-4.69-0.941-23.109 7.174-2.080 0.962-3.496 3.028-3.496 5.427 0 1.411 0.489 2.707 1.309 3.727l-0.010-0.012 30.133 27.856c0.378 0.462 0.65 0.907 0.97 1.358l5.69 13.369c0.091 0.558 0.213 1.063 0.301 1.649l-0.897 41.026c0.389 2.95 2.888 5.203 5.913 5.203 0.788 0 1.54-0.153 2.227-0.43l-0.040 0.014c18.646-7.626 20.474-7.538 21.221-11.641l6.025-33.64c0.432-2.503 0.601-10.797 3.099-11.157 20.169-2.911 68.292-16.895 81.903-20.926 0.238-0.070 0.511-0.111 0.793-0.111 0.665 0 1.28 0.224 1.77 0.6l-0.008-0.006c0.714 0.531 1.184 1.359 1.222 2.298v0.007l4.326 130.336c0.024 1.015 0.551 1.9 1.342 2.418l0.011 0.008c0.453 0.305 1.011 0.487 1.611 0.487 0.405 0 0.789-0.083 1.14-0.232l-0.019 0.008 17.462-7.406c7.321-3.187 12.661-9.718 14.131-17.61l0.023-0.148 24.282-131.607c0.385-1.988 1.721-3.596 3.507-4.351l0.039-0.014 50.331-21.366c14.605-5.977 48.341-32.795 41.629-49.219-0.145-0.344-0.485-1.149-0.834-1.965l-0.83-1.94c-7.155-16.235-49.88-10.598-64.324-4.245l-50.331 21.343c-0.693 0.31-1.502 0.489-2.354 0.489-1.21 0-2.335-0.363-3.27-0.988l0.022 0.013-111.564-73.948c-3.736-2.527-8.343-4.034-13.301-4.034-3.359 0-6.556 0.692-9.458 1.941l0.156-0.060z"></path>
<path fill="#8d9994" d="M579.382 712.5h-33.261c-0.031-3.004-0.383-5.909-1.023-8.704l0.053 0.274 1.775-0.378c1.236-6.682 2.906-12.542 5.057-18.162l-0.236 0.7 31.291 11.336c-1.907 4.373-3.21 9.446-3.646 14.763l-0.012 0.172zM534.495 677.974c-5.678-9.922-11.338-18.367-17.516-26.392l0.398 0.539 26.572-20.013c6.639 8.598 13.125 18.293 18.948 28.419l0.668 1.262zM595.904 669.292l-29.467-15.425c4.948-9.439 10.642-19.485 16.855-29.832l28.527 17.094c-5.86 9.779-11.234 19.257-15.915 28.162zM497.043 627.444c-6.879-7.79-14.309-15.673-22.182-23.632l23.651-23.385c8.329 8.415 16.177 16.753 23.453 24.956zM629.213 613.46l-27.856-18.194c6.13-9.401 12.491-18.82 18.893-28.046l27.329 18.985c-6.248 8.964-12.403 18.122-18.375 27.255zM451.418 581.126q-11.787-10.972-24.384-21.925l21.828-25.092c8.663 7.524 17.079 15.105 25.224 22.647zM666.675 559.482l-26.78-19.708c7.068-9.629 13.984-18.704 20.479-26.951l26.13 20.581c-6.281 7.979-12.97 16.793-19.83 26.076zM401.922 538.014q-12.612-10.376-25.708-20.528l20.431-26.266q13.359 10.405 26.373 21.095zM349.986 497.569c-8.862-6.597-17.778-13.019-26.678-19.277l19.14-27.212c9.114 6.403 18.258 13.019 27.368 19.766zM296.174 459.686c-9.318-6.218-18.534-12.209-27.586-17.894l17.7-28.162c9.299 5.821 18.782 11.981 28.361 18.383zM240.548 424.795c-9.881-5.762-19.402-11.069-28.503-15.847l15.523-29.449c9.487 5.001 19.456 10.536 29.773 16.56zM183.114 394.848c-7.946-3.761-17.504-7.361-27.374-10.224l-1.415-0.351 8.469-32.179c13.226 3.732 24.434 7.929 35.199 12.921l-1.443-0.601z"></path>
</svg>
