<?xml version="1.0" encoding="utf-8"?>
<!-- Generator: Adobe Illustrator 22.1.0, SVG Export Plug-In . SVG Version: 6.00 Build 0)  -->
<svg version="1.1" id="Layer_1" xmlns="http://www.w3.org/2000/svg" xmlns:xlink="http://www.w3.org/1999/xlink" x="0px" y="0px"
	 viewBox="0 0 175 65" style="enable-background:new 0 0 175 65;" xml:space="preserve">
<style type="text/css">
	.st0{fill:#FFFFFF;}
</style>
<path class="st0" d="M156.438,13.687c2.123-2.2,4.116-2.33,5.437-0.932c0.88,0.958,0.854,3.78-1.372,5.514h-0.026
	c-0.751,0.595-2.511,1.657-2.511,1.657h3.495c1.165,0,1.036,0,1.036,1.036v24.412c0,4.867-2.123,7.792-7.145,7.792h-22.937
	c-0.57,0-1.036-0.466-1.036-1.01V20.961c0-0.57,0.466-1.036,1.036-1.036h15.326l-1.502-1.036c-0.673-0.595-1.527-1.243-2.071-1.942
	c-0.906-1.165-1.191-2.848-0.233-4.039c1.191-1.424,3.029-1.269,4.142-0.492c0.958,0.621,1.786,1.424,2.408,2.356
	c0.544,0.803,0.958,1.683,1.269,2.615c0.388,1.139,0.699,2.097,0.699,2.097S154.885,15.318,156.438,13.687z M142.536,25.44
	c-2.977,0.414-5.333,2.718-5.281,4.841c-0.052,4.22-0.026,8.103-0.026,12.426c0,0.026,0,0.078,0,0.104
	c0.233,2.149,1.476,5.695,5.307,6.472c2.511,0.466,5.048,0.388,7.352,0.311l0,0c3.831-0.078,6.317-3.288,6.679-7.689
	c0.44-4.763,0.181-9.579,0.233-14.394c0.026-0.984,0-1.89,0-2.718c0-1.346,0.026-1.243-0.725-1.113
	c-1.967,0.337-3.831,1.476-4.479,3.262c-0.337,0.932-0.388,1.709-0.44,2.692c0,3.987,0.078,7.689-0.078,11.831
	c-0.181,2.33-1.269,3.624-4.09,3.624c-2.744,0-4.246-1.243-4.349-3.443c-0.129-4.401-0.129-9.371-0.155-13.798
	C142.51,27.045,142.51,26.268,142.536,25.44 M153.746,19.952h3.081c1.553-0.932,3.184-2.563,2.796-4.66
	c-0.155-0.958-1.32-1.113-2.071-0.388c-1.294,1.398-2.925,3.443-4.297,5.048H153.746z M150.432,16.664
	c-1.605-1.89-2.744-1.89-3.754-1.786c-0.337,0-0.647,0.259-0.725,0.595c-0.026,0.259,0,0.518,0.052,0.751
	c0.388,1.087,2.2,2.356,3.676,3.469c0.155,0.104,0.311,0.181,0.466,0.259h1.812c0,0-0.285-0.751-0.57-1.424
	C151.131,17.829,150.82,17.207,150.432,16.664L150.432,16.664z M120.609,25.052c-0.44,2.382-0.828,4.556-1.269,6.99h3.469
	c0,0,0.466-1.864,0.57-2.278c1.605,1.191,3.676,2.615,5.644,4.064c-2.433,1.398-4.945,2.718-7.378,4.116l0.337-2.33
	c-0.932,0-2.408,0-3.34,0c0,0-0.155,0.699-0.233,1.061c-0.647,3.107-1.243,6.239-1.838,9.371c-0.544,2.822-2.123,3.935-4.815,3.909
	c-1.942-0.026-3.65,0.104-6.006-0.155c-2.744-0.285-4.789-2.822-4.893-5.566c-0.129-2.925,0.311-5.773,1.709-8.388
	c1.294-2.408,3.029-3.883,5.902-3.935c1.32-0.026,2.796-0.052,4.194-0.052c1.502,0,1.527-0.337,1.683-1.372
	c0.259-1.527,0.621-3.34,0.88-4.841c0.129-0.699,0.466-0.621,1.165-0.621C117.761,25.052,119.081,25.052,120.609,25.052
	 M109.347,45.84c1.217,0,1.993-0.078,2.097-0.518c0.544-2.563,1.061-5.1,1.424-7.275c0.078-0.673-0.104-1.553-0.595-1.916
	c-1.346-0.958-4.789-0.414-5.437,1.476c-0.518,1.476-0.751,2.951-1.01,4.763C105.594,45.218,106.215,45.866,109.347,45.84
	 M46.258,46.927c0.311,2.951-0.129,2.822,1.372,2.822h2.925c1.191,0,1.01,0.207,1.502-0.88c1.294-2.899,2.485-5.877,3.728-8.802
	c0.155-0.285,0.285-0.57,0.44-0.828c0.181-0.311,0.259-0.181,0.285,0.078c0.104,3.469,0.155,7.016,0.285,10.536
	c1.346,0,2.796,0,3.831,0c0.984,0,1.45-0.285,1.864-1.139c2.382-5.1,4.815-10.174,7.249-15.274c0.181-0.337,0.337-0.673,0.492-1.01
	c-1.372,0-3.158-0.052-4.401-0.026c-0.725,0-0.932,0.414-1.191,1.061c-1.269,3.158-2.2,5.411-3.495,8.543
	c-0.155,0.362-0.595,1.398-0.777,1.76c-0.104-0.026-0.026,0.207-0.129,0.181c-0.078-3.831-0.155-9.242-0.181-11.52
	c-1.191,0-2.433-0.026-3.469-0.026c-1.165,0-1.294,0.104-1.605,0.854c-1.269,3.107-2.511,6.343-3.831,9.423
	c-0.155,0.388-0.57,1.113-0.751,1.502c-0.104-0.078-0.155-0.207-0.233-0.466c0-3.728,0.026-7.611,0.026-11.391h-5.022
	C45.145,32.3,45.87,43.277,46.258,46.927 M80.689,39.627c0.518-2.278,0.388-3.262-1.916-3.262c-2.304-0.052-4.634-0.026-7.145-0.026
	c0.362-1.243,0.621-2.382,1.087-3.469c0.259-0.362,0.673-0.595,1.113-0.621c2.304,0,4.479-0.129,6.964,0
	c3.081,0.155,5.333,3.081,4.867,6.187c-0.414,2.77-0.932,5.514-1.45,8.258c-0.311,1.683-1.243,2.925-3.029,3.055
	c-2.563,0.155-5.178,0.362-7.715,0.104c-3.806-0.388-5.204-2.563-4.323-6.317c0.544-2.356,2.071-4.297,4.556-4.763
	C76.055,38.306,78.851,38.384,80.689,39.627 M76.961,46.28c0.673,0,1.683,0,1.683,0c0.233,0,0.828,0,0.906-0.337
	c0.777-3.262,0.104-3.78-2.278-3.831c-0.595-0.026-1.191,0.026-1.786,0.155c-1.243,0.285-1.942,0.803-1.838,2.563
	c0.052,1.036,0.725,1.45,1.398,1.45C75.486,46.28,76.547,46.28,76.961,46.28 M31.139,42.811c-0.181,1.967,0.544,3.21,2.433,3.288
	c2.149,0.078,4.297,0.026,6.653,0.026c-0.44,1.113-0.777,2.149-1.243,3.132c-0.233,0.311-0.57,0.492-0.932,0.492
	c-2.408-0.026-4.841,0.104-7.223-0.181c-2.796-0.337-4.505-2.33-4.427-5.152c0.052-2.097,0.259-4.246,0.88-6.213
	c1.553-4.919,4.919-6.834,10.614-6.161c3.107,0.362,4.738,1.709,4.893,3.935c0.259,3.961-2.433,6.938-5.411,6.912
	C35.437,42.863,33.133,42.811,31.139,42.811 M31.838,39.497h4.608c1.165,0,1.786-1.631,1.76-2.537
	c-0.052-1.217-1.087-1.398-2.071-1.476C33.702,35.303,31.864,36.779,31.838,39.497 M21.38,32.145
	c-3.288,0.207-5.462,2.175-6.394,5.333c-0.388,1.32-0.647,2.666-0.932,4.013c-0.544,2.718-1.01,5.229-1.553,8.129
	c1.476,0,4.479,0.052,4.479,0.052s0.57,0.078,0.647-0.414c0.621-3.417,1.346-6.265,1.942-9.32s1.32-3.495,4.039-3.495h0.647
	c0,0,0.725,0.078,0.88-0.207c0.466-1.036,1.087-2.796,1.553-4.064C24.823,32.171,23.011,32.067,21.38,32.145 M90.837,49.878
	c0.984,0,1.32-0.259,1.502-1.243c0.518-3.003,1.139-6.006,1.76-8.983c0.544-2.563,1.346-3.184,4.013-3.184
	c0.259,0.026,0.518,0.026,0.777,0c0.285-0.104,0.699-0.233,0.803-0.466c0.492-1.139,0.88-2.304,1.346-3.573
	c-1.812,0-3.443-0.078-5.074,0.026c-3.184,0.129-5.54,1.657-6.343,4.763c-1.061,4.09-1.812,8.284-2.744,12.633
	C88.352,49.852,89.569,49.878,90.837,49.878"/>
</svg>
