<?xml version="1.0" encoding="utf-8"?>
<!-- Generator: Adobe Illustrator 22.0.1, SVG Export Plug-In . SVG Version: 6.00 Build 0)  -->
<svg version="1.1" id="Layer_1" xmlns="http://www.w3.org/2000/svg" xmlns:xlink="http://www.w3.org/1999/xlink" x="0px" y="0px"
	 viewBox="0 0 141 39" style="enable-background:new 0 0 141 39;" xml:space="preserve">
<style type="text/css">
	.st0{fill:#564F70;}
	.st1{fill:#6E2D91;}
</style>
<path class="st0" d="M69.3,15.4h-6.1L62,19h-2.8l5.9-15.6h2.4l6,15.6h-2.8L69.3,15.4z M64,13.2h4.5l-2.3-6.5L64,13.2z M74.5,13.1
	c0-1.8,0.4-3.2,1.3-4.3c0.8-1.1,2-1.6,3.4-1.6c1.3,0,2.4,0.5,3.1,1.4l0.1-1.2h2.4v11.3c0,1.5-0.5,2.7-1.4,3.6s-2.2,1.3-3.8,1.3
	c-0.9,0-1.7-0.2-2.5-0.5c-0.8-0.4-1.4-0.8-1.9-1.4l1.2-1.6c0.8,1,1.8,1.4,3,1.4c0.9,0,1.5-0.2,2.1-0.7c0.5-0.5,0.8-1.2,0.8-2.1V18
	c-0.8,0.8-1.8,1.3-3,1.3c-1.4,0-2.5-0.5-3.3-1.6S74.5,15,74.5,13.1z M77.1,13.3c0,1.2,0.2,2.1,0.7,2.8c0.5,0.7,1.1,1,2,1
	c1.1,0,1.8-0.5,2.3-1.4v-5.1c-0.5-0.9-1.3-1.3-2.3-1.3c-0.9,0-1.5,0.3-2,1S77.1,12,77.1,13.3z M92.6,19.2c-1.7,0-3-0.5-4-1.6
	c-1-1-1.5-2.4-1.5-4.2v-0.3c0-1.2,0.2-2.2,0.7-3.1c0.4-0.9,1.1-1.6,1.9-2.1s1.7-0.8,2.7-0.8c1.6,0,2.8,0.5,3.7,1.5
	c0.9,1,1.3,2.4,1.3,4.3V14h-7.6c0.1,1,0.4,1.7,1,2.3c0.6,0.6,1.3,0.8,2.1,0.8c1.2,0,2.2-0.5,2.9-1.5L97,17c-0.5,0.7-1.1,1.2-1.9,1.6
	C94.4,19,93.5,19.2,92.6,19.2z M92.3,9.3c-0.7,0-1.3,0.3-1.7,0.8c-0.4,0.5-0.7,1.2-0.8,2.1h5V12c-0.1-0.9-0.3-1.5-0.7-2
	C93.5,9.5,93,9.3,92.3,9.3z M101.7,7.4l0.1,1.3c0.9-1,2-1.6,3.4-1.6c2.4,0,3.7,1.4,3.7,4.2V19h-2.6v-7.5c0-0.7-0.2-1.3-0.5-1.6
	c-0.3-0.4-0.8-0.5-1.6-0.5c-1.1,0-1.8,0.5-2.4,1.4V19h-2.6V7.4H101.7z M114.8,4.6v2.8h2.1v1.9h-2.1v6.5c0,0.4,0.1,0.8,0.3,1
	c0.2,0.2,0.5,0.3,0.9,0.3c0.3,0,0.6,0,0.9-0.1v2c-0.6,0.2-1.2,0.2-1.7,0.2c-2,0-3-1.1-3-3.3V9.3h-1.9V7.4h1.9V4.6H114.8z M69.3,34.4
	h-6.1L62,38h-2.8l5.9-15.6h2.4l6,15.6h-2.8L69.3,34.4z M64,32.2h4.5l-2.3-6.5L64,32.2z M79.8,36.1c0.7,0,1.2-0.2,1.6-0.6
	s0.7-0.8,0.7-1.4h2.5c0,0.7-0.3,1.4-0.7,2c-0.4,0.6-1,1.1-1.7,1.5s-1.5,0.5-2.3,0.5c-1.6,0-2.9-0.5-3.9-1.6s-1.4-2.5-1.4-4.4V32
	c0-1.8,0.5-3.2,1.4-4.2c0.9-1.1,2.2-1.6,3.9-1.6c1.4,0,2.5,0.4,3.4,1.2c0.9,0.8,1.3,1.9,1.4,3.2h-2.5c0-0.7-0.3-1.2-0.7-1.6
	s-1-0.6-1.6-0.6c-0.8,0-1.5,0.3-2,0.9s-0.7,1.5-0.7,2.8v0.4c0,1.3,0.2,2.2,0.7,2.8C78.2,35.8,78.9,36.1,79.8,36.1z M91.3,36.1
	c0.7,0,1.2-0.2,1.6-0.6s0.7-0.8,0.7-1.4H96c0,0.7-0.3,1.4-0.7,2c-0.4,0.6-1,1.1-1.7,1.5s-1.5,0.5-2.3,0.5c-1.6,0-2.9-0.5-3.9-1.6
	S86,34.1,86,32.3V32c0-1.8,0.5-3.2,1.4-4.2c0.9-1.1,2.2-1.6,3.9-1.6c1.4,0,2.5,0.4,3.4,1.2c0.9,0.8,1.3,1.9,1.4,3.2h-2.5
	c0-0.7-0.3-1.2-0.7-1.6s-1-0.6-1.6-0.6c-0.8,0-1.5,0.3-2,0.9s-0.7,1.5-0.7,2.8v0.4c0,1.3,0.2,2.2,0.7,2.8
	C89.8,35.8,90.4,36.1,91.3,36.1z M97.5,32.1c0-1.1,0.2-2.2,0.7-3.1s1.1-1.6,1.9-2.1s1.8-0.7,2.8-0.7c1.6,0,2.8,0.5,3.8,1.5
	s1.5,2.3,1.6,4v0.6c0,1.1-0.2,2.2-0.7,3.1c-0.4,0.9-1.1,1.6-1.9,2.1s-1.8,0.7-2.8,0.7c-1.6,0-3-0.5-3.9-1.6
	C98,35.5,97.5,34.1,97.5,32.1L97.5,32.1z M100.1,32.3c0,1.2,0.2,2.1,0.7,2.8s1.2,1,2.1,1s1.6-0.3,2.1-1s0.7-1.7,0.7-3
	c0-1.2-0.3-2.1-0.8-2.8c-0.5-0.7-1.2-1-2.1-1s-1.5,0.3-2,1C100.4,29.9,100.1,31,100.1,32.3z M117.6,36.9c-0.8,0.9-1.9,1.4-3.3,1.4
	c-1.3,0-2.2-0.4-2.9-1.1c-0.6-0.7-1-1.8-1-3.2v-7.5h2.6V34c0,1.5,0.6,2.2,1.8,2.2c1.3,0,2.1-0.5,2.6-1.4v-8.3h2.6V38h-2.5
	L117.6,36.9z M125.2,26.4l0.1,1.3c0.9-1,2-1.6,3.4-1.6c2.4,0,3.7,1.4,3.7,4.2V38h-2.6v-7.5c0-0.7-0.2-1.3-0.5-1.6
	c-0.3-0.4-0.8-0.5-1.6-0.5c-1.1,0-1.8,0.5-2.4,1.4V38h-2.6V26.4H125.2z M138.3,23.6v2.8h2.1v1.9h-2.1v6.5c0,0.4,0.1,0.8,0.3,1
	s0.5,0.3,0.9,0.3c0.3,0,0.6,0,0.9-0.1v2c-0.6,0.2-1.2,0.2-1.7,0.2c-2,0-3-1.1-3-3.3v-6.6h-1.9v-1.9h1.9v-2.8
	C135.7,23.6,138.3,23.6,138.3,23.6z"/>
<path class="st1" d="M48,2H6C4.3,2,3,3.3,3,5v23.8C1.5,31,0.6,34,0.5,37.9l0,0C0.5,38.5,1,39,1.6,39h20.9l0,0c0.6,0,1-0.5,1-1.1l0,0
	c-0.1-1.4-0.2-2.7-0.4-3.9H48c1.7,0,3-1.3,3-3V5C51,3.3,49.7,2,48,2z M49,9H30.4c0.4,0.9,0.6,1.9,0.6,3c0,0.7-0.1,1.4-0.3,2H49v16
	c0,1.1-0.9,2-2,2H34.4C34,23.5,30.2,19.2,23,19.2c-1.1,0-2,0.1-3,0.3c-0.4,1.5-1.2,2.9-2.3,4c3.5,1.4,5.9,4.2,7.1,8.5h-2.3
	c-1.6-4.9-5.1-7.3-10.6-7.3c-2.9,0-5.2,0.7-7,2V6c0-1.1,0.9-2,2-2h40c1.1,0,2,0.9,2,2L49,9L49,9z M18,17.5c0,3.3-2.7,6-6,6
	s-6-2.7-6-6s2.7-6,6-6S18,14.2,18,17.5z M29,12c0,3.3-2.7,6-6,6c-1,0-1.9-0.2-2.7-0.7c0-2.6-1.3-4.9-3.2-6.4c0.5-2.8,3-5,5.9-5
	C26.3,6,29,8.7,29,12z"/>
</svg>
