<svg xmlns="http://www.w3.org/2000/svg" viewBox="0 0 166.3 52.6"><style type="text/css">
	.st0{fill:#EB1E23;}
	.st1{fill:#6E2D91;}
</style><path class="st0" d="M22 7.4V3.9c0-0.4-0.3-0.7-0.7-0.7l0 0h-9.1c-0.4 0-0.7 0.3-0.7 0.7v3.5H8.4V2.1C8.4 1 9.3 0 10.4 0h12.7c1.2 0 2.1 0.9 2.1 2.1 0 0 0 0 0 0v5.3H22zM132.5 52.6c0.3-1.2 0.6-2.2 0.6-2.6 0.2-0.7 0.9-0.5 3.1-0.5 1.4 0.1 2.8 0 4.1-0.1 1.9-0.3 2.9-1.4 3.1-3.5 -1.7 0.2-3.4 0.3-5.1 0.2 -3.4-0.2-5.3-2.3-5-5.5 0.4-3.5 1.1-7 1.8-10.4 0.1-0.4 0.5-0.7 0.9-0.9 1-0.1 2-0.1 3 0 -0.6 3.2-1.1 6-1.7 8.9 0 0.1-0.1 0.2-0.1 0.3 -0.5 2.8-0.1 4 1.7 4.4 3.1 0.7 5.3-0.4 5.9-3.1s1.4-7 1.9-9.6c0.2-0.9 0.2-1.1 0.8-1.1h3c-0.4 2-0.7 4.4-1.1 6.3 -0.8 3.9-1.5 7.9-2.5 11.8 -0.6 3.1-3.2 5.4-6.4 5.4C138 52.7 135.3 52.6 132.5 52.6zM44.8 44.1c0.6-2.8 1.1-5.6 1.7-8.5 0.7-3.2 2.2-4.2 5.4-3.9 2.2 0.3 3 1.2 2.7 3.4 -0.2 1.5-0.6 3-0.9 4.6 -0.4 2.3-0.8 4.6-1.3 7 1.1 0 2 0 2.8 0 0.5 0 1-0.7 1.1-1.1 0.8-3.5 1.5-7 2.1-10.6s-1.2-6-4.9-6.4c-1.9-0.2-3.8-0.1-5.7 0.3 0.4-2.1 0.9-4.9 1.4-7.6 -1.4 0-3.7-0.3-4 1.3 -1.4 7.5-3.2 16.1-4.7 24.1C44.2 46.9 44.3 46.9 44.8 44.1zM157.2 46.8c1.5 0 3-0.3 4.4-0.7 2.2-0.7 3.4-2.5 3.4-5 0-2.1-0.9-3.3-3.2-4.2 -1.2-0.5-2.5-0.8-3.8-1.2 -0.9-0.3-2-0.5-1.8-1.8s1.1-1.6 2.2-1.6c1.6 0 3.1 0 4.7 0 2.6 0 2.8-0.2 3.1-3 -3.2-0.1-6.3-0.1-9.5 0.1 -2.7 0.3-4.2 2.4-4.3 5s0.9 3.7 3.9 4.6c1 0.3 1.9 0.6 2.9 0.9s1.9 0.6 1.8 1.9 -1 1.7-2.1 1.8c-1.7 0.1-3.4 0.1-5 0.1 -2.8 0-2.8 0-3.6 3.2C152.8 46.8 155.1 46.9 157.2 46.8zM82.3 46.8c0.8 0 0.8-0.3 1.3-3 0.9-4.8 1.9-9.6 2.9-14.4 0.5-2.5 0.9-5.3 1.4-7.8 -3.7 0-3.6-0.3-4.1 2.4 -1.2 5.6-2.3 11.3-3.4 16.9 -0.4 1.8-0.8 4-1.1 5.8C80.9 46.8 81.8 46.8 82.3 46.8zM90.8 29c-0.6 0-0.7 0.2-0.9 1 -0.2 1-0.8 4-0.9 5 -0.7 3.9-1.8 8.1-2.5 11.9h3.3c0.7 0 0.7-0.5 1.2-2.8 0.7-3.5 1.3-6.9 2-10.4 0.3-1.4 0.5-3.1 0.8-4.6L90.8 29zM93.1 21.9c-1.3-0.1-2.5 0.8-2.6 2.1 0 0.1 0 0.3 0 0.4 -0.1 1.5 0.8 2 2.1 2.1 1.3 0.1 2.5-0.8 2.6-2.2 0-0.1 0-0.2 0-0.3C95.2 22.5 94.6 21.9 93.1 21.9L93.1 21.9zM114.9 21.4c-0.9 4.7-1.8 9.7-2.7 14.3 -0.5 2.6-1 5.2-1.5 7.8 -0.5 2.4-1.3 3.2-3.7 3.4 -2.1 0.2-4.3 0.1-6.4-0.2 -3-0.2-5.3-2.9-5.1-5.9 0-2.2 0.3-4.4 1-6.5 1.9-5.4 7-7.3 12.2-4.8 0.3 0.1 0.5 0.3 0.8 0.4 0.3-1.8 1-5.2 1.4-7 0.3-1.4 0.2-1.5 1.3-1.5L114.9 21.4zM107.2 32.4c-2.2-1.4-5.2-0.7-6.5 1.5 -0.2 0.3-0.3 0.6-0.5 0.9 -0.4 1.3-0.8 2.6-0.9 4 -0.4 3.7 0.6 5.2 4.5 5.2 3 0 2.9-0.5 3.3-1.7 0.6-2.5 1.1-5 1.3-7.5C108.3 33.8 107.9 32.9 107.2 32.4L107.2 32.4zM130.4 34.7c-0.4 3.3-1.1 6.5-1.8 9.7 -0.3 1.3-1.3 2.2-2.6 2.3 -2.1 0.3-4.3 0.4-6.4 0.3 -2.1-0.1-4.3-0.5-5-3 -0.7-2.7-0.3-5.2 1.9-7 2.4-2 5-1.9 7.9-1.3 0.8 0.2 1.6 0.5 2.3 1 0.5-3.1 0.1-4.2-2.3-4.2 -2.2 0-4.7 0-7 0 0.5-3.1 0.3-3.3 2.2-3.3 1.6 0 4.9 0 6.4 0 2.7 0.1 4.7 2.4 4.6 5.1C130.5 34.4 130.5 34.5 130.4 34.7zM124.1 44.1c1.5-0.2 1.8-1.9 1.7-3 0-2-0.8-2.6-3.3-2.7 -0.8 0-1.7 0-2.5 0.2 -1.5 0.4-2.4 1.9-2.2 3.5 0.2 1.6 1.3 2 2.5 2C121.6 44.1 122.8 44.1 124.1 44.1L124.1 44.1zM77.9 36.3c-0.2 1.8-0.6 3.6-1.2 5.2 -1.8 4.8-7.1 7.2-11.8 5.4 -0.4-0.1-0.7-0.3-1.1-0.5 -2-1-3.2-3.1-2.9-5.4 0.2-2.4 0.6-4.7 1.3-7 0.8-3.1 3.5-5.3 6.7-5.4 1.6-0.1 3.2 0 4.8 0.2C76.6 29.5 78.1 31.7 77.9 36.3zM74.1 35.3c0-1.8-0.6-2.6-1.3-2.9 -2.5-1.3-5.5-0.5-7 1.9 -0.9 2-1.4 4.2-1.5 6.4 -0.1 0.9 0.3 2.6 1.4 3.1 2.6 1.3 5.7 0.3 7.1-2.2 0.1-0.1 0.1-0.3 0.2-0.4C73.8 39.3 74.1 37.3 74.1 35.3L74.1 35.3z"/><path class="st1" d="M30.1 7.2H3.2c-2 0-3.2 1-3.2 3.3 0 11 0 22 0 32.9 0 2.8 0.6 3.4 3.3 3.4h1.4c0 0 0 0 0 0.1 0 1.9 1.6 3.5 3.5 3.5s3.5-1.6 3.5-3.5c0 0 0 0 0-0.1h9.7c0 0 0 0 0 0.1 0 1.9 1.6 3.5 3.5 3.5s3.5-1.6 3.5-3.5c0 0 0 0 0-0.1h1.3c2.6 0 3.2-0.6 3.2-3.2 0-5.5 0-11 0-16.6l0 0c0-4.7 0-12.3 0-17C32.9 8.3 32.3 7.2 30.1 7.2zM28 31.1c0 1.4-0.2 2.8-0.4 4.1 -0.7 4-3.2 6.2-7.1 6.8 -2.3 0.3-4.5 0.4-6.8 0.2 -5.5-0.5-8-3.2-8.3-8.8 -0.3-4.5-0.1-9-0.1-13.5 0.3-3.2 3-5.7 6.2-5.6 0 0.6 0.1 1.2 0.1 1.9 0 4.6 0 9.1 0 13.7 0 0.5 0 1.1 0 1.6 0 4.1 0.9 5.4 5.2 5.4 4 0 4.9-1.1 4.9-5.4s0-7.4 0.1-11.9c-0.1-1.7 0.3-3.5 0.9-5.1 0.9-1.8 4.1-2.4 5.3-2.5v2C28 19.7 28 25.4 28 31.1zM74.7 16.2h5c-0.1 0.9-0.8 1.6-1.7 1.7 -1.5 0-3.1 0-4.6 0h-0.9c0.1-0.7 0.3-1.5 0.4-2.2l1.4-7c0.1-0.4 0.2-0.9 0.3-1.3 0-0.1 0.1-0.2 0.2-0.2h1.8C75.9 10.2 75.3 13.2 74.7 16.2zM87.3 7.2L87.3 7.2c-0.1 0-0.2 0.1-0.2 0.1l-3.4 4.3c-0.1 0.1-0.1 0.1-0.2 0.2 -0.1-0.2-0.1-0.4-0.2-0.5C82.9 10 82.5 8.7 82 7.4c0-0.1-0.1-0.2-0.1-0.2h-2c0 0.1 0.1 0.2 0.1 0.4 0.8 1.9 1.4 3.6 2.2 5.5 0 0.1 0.2 0.4 0.2 0.4s-0.1 0.2-0.1 0.3c0 0.3-0.1 0.6-0.2 0.9l-0.6 3.2c0.6 0 1.1 0 1.7 0 0.2 0 0.3-0.1 0.3-0.3 0.2-1.3 0.5-2.5 0.7-3.8 0-0.1 0.1-0.4 0.1-0.4l0.2-0.2 4.6-5.7 0.2-0.3L87.3 7.2zM72.5 7.2h-5.4c-0.9 0-1.6 0.6-1.7 1.5l-1.5 7.6c-0.1 0.5-0.2 1.1-0.3 1.6 1 0.2 2-0.4 2.2-1.4 0 0 0 0 0 0l0 0c0.2-0.9 0.3-1.7 0.5-2.6 0.1-0.5 0-0.4 0.5-0.4h3.7c0.1 0 0.2 0 0.3-0.1 0.2-0.5 0.4-1 0.6-1.6h-4.6c0-0.1 0-0.1 0-0.2 0.2-0.8 0.3-1.5 0.4-2.3 0.1-0.4 0-0.3 0.4-0.3h4.3c0.1 0 0.2 0 0.3-0.1 0.2-0.5 0.4-1 0.6-1.6L72.5 7.2zM62.6 12.4h-3.8c-0.3 0-0.5 0-0.8 0.1 -0.4 0.3-0.7 0.7-0.8 1.1 0 0.1 0 0.2 0.2 0.3 0 0 0.1 0 0.1 0h3.8c0.3 0 0.5 0 0.8-0.1 0.4-0.3 0.6-0.6 0.8-1.1C62.9 12.5 62.8 12.4 62.6 12.4 62.7 12.4 62.7 12.4 62.6 12.4zM56.9 7.1H56c-0.8 0-1 0.1-1.2 1.1l-0.9 5.3c-0.2 1.2-0.5 1.7-0.8 2 -0.6 0.4-1.4 0.6-2.1 0.5 -1 0-1.6-0.2-1.8-0.5s-0.3-0.9-0.1-2l0.9-5.3c0.2-1 0-1.2-0.8-1.2h-0.8c-0.1 0-0.3 0.1-0.3 0.2 0 0 0 0 0 0l-1.1 6.4c-0.3 1.7-0.3 2.4 0.2 3s1.6 1.2 3.5 1.2c1.3 0.1 2.6-0.3 3.8-1 0.8-0.6 1.2-1.5 1.5-3.4L57 7.4C57.1 7.2 57 7.1 56.9 7.1z"/></svg>
