<?xml version="1.0" encoding="utf-8"?>
<!-- Generator: Adobe Illustrator 22.1.0, SVG Export Plug-In . SVG Version: 6.00 Build 0)  -->
<svg version="1.1" id="Layer_1" xmlns="http://www.w3.org/2000/svg" xmlns:xlink="http://www.w3.org/1999/xlink" x="0px" y="0px"
	 viewBox="0 0 175 65" style="enable-background:new 0 0 175 65;" xml:space="preserve">
<style type="text/css">
	.st0{fill:#6D318F;}
</style>
<path class="st0" d="M67.169,16.607v13.434c0,1.325-0.12,2.651-0.482,3.976c-0.301,1.024-0.843,1.988-1.566,2.711
	c-0.783,0.783-1.747,1.325-2.831,1.627c-1.446,0.361-2.892,0.542-4.337,0.542c-1.446,0-2.892-0.181-4.277-0.663
	c-1.145-0.361-2.108-0.964-2.952-1.747c-0.602-0.542-0.964-1.325-1.024-2.169c0-0.542,0.181-1.024,0.602-1.386
	c0.361-0.361,0.904-0.542,1.386-0.542c0.723,0,1.325,0.361,1.747,0.904l0.783,0.904c0.241,0.301,0.542,0.602,0.904,0.843
	c0.361,0.241,0.723,0.422,1.145,0.482c0.482,0.12,1.024,0.181,1.566,0.181c0.964,0.06,1.928-0.12,2.771-0.482
	c0.602-0.301,1.084-0.783,1.386-1.386c0.241-0.602,0.422-1.265,0.482-1.928c0.06-0.663,0.06-1.807,0.12-3.313
	c-0.663,0.904-1.506,1.687-2.47,2.289c-1.024,0.542-2.169,0.783-3.313,0.783c-1.446,0-2.831-0.422-4.036-1.205
	c-1.205-0.843-2.108-1.988-2.651-3.313c-0.663-1.566-0.964-3.253-0.904-4.94c0-1.265,0.181-2.53,0.542-3.735
	c0.361-1.024,0.904-1.988,1.627-2.831c0.663-0.723,1.506-1.325,2.41-1.747c0.964-0.422,1.988-0.602,3.012-0.602
	c1.205,0,2.349,0.241,3.373,0.723c1.024,0.602,1.988,1.386,2.651,2.349v-0.602c-0.06-0.663,0.181-1.325,0.602-1.867
	c0.361-0.422,0.964-0.663,1.506-0.663c0.723-0.12,1.386,0.241,1.747,0.843c0.361,0.783,0.482,1.627,0.422,2.47 M53.735,22.33
	c-0.12,1.506,0.301,3.012,1.205,4.217c0.783,0.964,1.928,1.446,3.193,1.446c0.783,0,1.506-0.241,2.169-0.602
	c0.723-0.422,1.325-1.084,1.687-1.867c0.422-0.964,0.663-1.988,0.663-3.012c0.12-1.566-0.361-3.133-1.265-4.398
	c-0.783-1.024-1.988-1.627-3.253-1.566c-1.265-0.06-2.41,0.542-3.193,1.506C54.096,19.318,53.675,20.824,53.735,22.33
	 M96.626,22.631c0,1.325-0.181,2.59-0.663,3.795c-0.422,1.145-1.024,2.169-1.867,3.012s-1.807,1.506-2.892,1.928
	c-1.205,0.482-2.53,0.663-3.795,0.663c-1.265,0-2.59-0.181-3.795-0.663c-2.229-0.904-3.976-2.651-4.759-4.94
	c-0.843-2.47-0.843-5.181,0-7.651c0.422-1.084,1.024-2.108,1.867-2.952c0.843-0.843,1.807-1.506,2.892-1.928
	c2.47-0.904,5.12-0.904,7.59,0c1.084,0.422,2.108,1.084,2.952,1.928s1.446,1.867,1.867,2.952
	C96.446,20.041,96.626,21.306,96.626,22.631 M91.988,22.631c0.12-1.566-0.361-3.133-1.265-4.398
	c-0.783-1.024-2.048-1.627-3.313-1.566c-0.843,0-1.687,0.241-2.41,0.723c-0.723,0.542-1.265,1.265-1.566,2.048
	c-0.723,2.048-0.723,4.277,0,6.386c0.301,0.843,0.843,1.566,1.566,2.108c0.723,0.482,1.566,0.723,2.41,0.723
	c1.325,0.06,2.53-0.542,3.313-1.566C91.626,25.764,92.108,24.197,91.988,22.631 M121.446,29.378v-0.482
	c-0.542,0.663-1.145,1.205-1.807,1.747c-0.602,0.422-1.265,0.783-1.988,1.024s-1.506,0.361-2.289,0.361
	c-1.084,0-2.108-0.241-3.072-0.723c-0.964-0.482-1.807-1.145-2.47-1.988c-0.723-0.904-1.265-1.928-1.566-3.072
	c-0.361-1.205-0.542-2.53-0.542-3.795c0-2.892,0.723-5.12,2.108-6.747s3.434-2.47,5.542-2.41c1.145-0.06,2.289,0.181,3.313,0.663
	c1.024,0.542,1.928,1.265,2.651,2.108V9.258c-0.06-0.783,0.12-1.506,0.542-2.169c0.361-0.482,0.964-0.783,1.627-0.723
	c0.602-0.06,1.205,0.181,1.627,0.663c0.422,0.542,0.602,1.265,0.542,1.988v20.361c0.06,0.723-0.181,1.446-0.602,1.988
	c-0.422,0.422-0.964,0.663-1.566,0.663s-1.145-0.241-1.566-0.663C121.566,30.764,121.325,30.101,121.446,29.378 M112.289,22.571
	c0,1.084,0.181,2.169,0.602,3.193c0.301,0.783,0.904,1.506,1.627,1.988c0.663,0.422,1.446,0.663,2.229,0.663
	s1.566-0.241,2.229-0.663c0.723-0.482,1.265-1.145,1.627-1.928c0.422-1.024,0.663-2.169,0.602-3.253
	c0-1.084-0.181-2.169-0.602-3.193c-0.361-0.843-0.904-1.506-1.687-2.048c-0.663-0.482-1.446-0.723-2.229-0.723
	s-1.627,0.241-2.289,0.723c-0.723,0.542-1.265,1.265-1.566,2.048C112.41,20.462,112.229,21.547,112.289,22.571 M149.88,29.378
	c-0.964,0.783-2.048,1.446-3.253,1.928c-1.145,0.422-2.289,0.663-3.494,0.663c-1.084,0-2.169-0.241-3.133-0.723
	c-0.843-0.422-1.566-1.084-2.048-1.928c-0.482-0.783-0.723-1.687-0.723-2.59c0-1.205,0.422-2.349,1.205-3.253
	c0.904-0.964,2.048-1.566,3.313-1.807l2.169-0.482c1.145-0.241,2.169-0.422,3.012-0.663c0.843-0.241,1.747-0.422,2.711-0.723
	c0-0.964-0.241-1.867-0.723-2.711c-0.422-0.542-1.325-0.843-2.711-0.843c-0.904-0.06-1.807,0.12-2.651,0.482
	c-0.602,0.361-1.145,0.843-1.506,1.446c-0.422,0.663-0.723,1.084-0.904,1.265c-0.301,0.241-0.723,0.361-1.145,0.301
	c-0.482,0-0.964-0.181-1.325-0.482c-0.361-0.301-0.602-0.783-0.542-1.265c0-0.843,0.301-1.687,0.843-2.349
	c0.723-0.843,1.627-1.506,2.711-1.867c1.446-0.542,3.012-0.783,4.518-0.723c1.627-0.06,3.253,0.181,4.759,0.723
	c1.084,0.422,1.988,1.205,2.47,2.289c0.542,1.325,0.783,2.711,0.723,4.157v2.771c0,0,0,1.627,0,2.47
	c0,0.904,0.181,1.807,0.422,2.711c0.181,0.602,0.361,1.205,0.422,1.807c0,0.542-0.241,0.964-0.663,1.325
	c-0.422,0.361-0.964,0.602-1.506,0.602c-0.542,0-1.024-0.241-1.386-0.663C150.783,30.764,150.301,30.161,149.88,29.378
	 M149.578,22.752c-0.964,0.301-1.928,0.602-2.952,0.783c-1.265,0.301-2.169,0.482-2.711,0.602c-0.542,0.12-1.024,0.422-1.446,0.783
	c-0.482,0.422-0.723,0.964-0.663,1.566c0,0.663,0.301,1.325,0.843,1.807c0.602,0.482,1.325,0.783,2.108,0.723
	c0.843,0,1.747-0.181,2.47-0.602c0.663-0.361,1.265-0.904,1.687-1.566c0.482-1.084,0.723-2.289,0.602-3.434L149.578,22.752
	L149.578,22.752z M32.651,29.378c-0.964,0.783-2.108,1.446-3.253,1.928c-1.145,0.422-2.289,0.663-3.494,0.663
	c-1.084,0-2.169-0.241-3.133-0.723c-0.843-0.422-1.566-1.084-2.048-1.928C20.241,28.535,20,27.631,20,26.727
	c0-1.205,0.422-2.349,1.205-3.253c0.904-0.964,2.048-1.566,3.313-1.807l2.169-0.482c1.145-0.241,2.169-0.422,3.012-0.663
	c0.843-0.181,1.747-0.422,2.711-0.723c0-0.964-0.241-1.867-0.723-2.711c-0.422-0.542-1.325-0.843-2.711-0.843
	c-0.904-0.06-1.807,0.12-2.651,0.482c-0.602,0.361-1.145,0.843-1.506,1.446c-0.422,0.663-0.723,1.084-0.904,1.265
	c-0.301,0.241-0.723,0.361-1.145,0.301c-0.482,0-0.964-0.181-1.325-0.482c-0.361-0.301-0.602-0.783-0.542-1.265
	c0-0.843,0.301-1.687,0.843-2.349c0.723-0.904,1.687-1.566,2.771-1.928c1.446-0.542,3.012-0.783,4.578-0.723
	c1.627-0.06,3.253,0.181,4.759,0.723c1.084,0.422,1.988,1.205,2.47,2.289c0.542,1.325,0.783,2.711,0.723,4.157v2.771
	c0,0,0,1.627,0,2.47c0,0.904,0.181,1.807,0.422,2.711c0.181,0.602,0.361,1.205,0.422,1.807c0,0.482-0.241,0.964-0.663,1.325
	c-0.422,0.361-0.964,0.602-1.506,0.602c-0.542,0-1.024-0.241-1.386-0.663c-0.542-0.602-1.084-1.265-1.446-1.928 M32.47,22.752
	c-0.964,0.301-1.928,0.602-2.952,0.783c-1.265,0.301-2.169,0.482-2.711,0.602c-0.542,0.12-1.024,0.422-1.446,0.783
	c-0.482,0.422-0.723,0.964-0.663,1.566c0,0.663,0.301,1.325,0.843,1.807c0.602,0.482,1.325,0.783,2.108,0.723
	c0.843,0,1.747-0.181,2.47-0.602c0.723-0.361,1.325-0.904,1.687-1.566c0.482-1.084,0.723-2.289,0.602-3.434L32.47,22.752z
	 M28.855,42.932c4.88,0,8.855,3.976,8.855,8.855s-3.976,8.855-8.855,8.855S20,56.667,20,51.788S23.976,42.932,28.855,42.932z
	 M58.133,42.932c4.88,0,8.855,3.976,8.855,8.855s-3.976,8.855-8.855,8.855s-8.855-3.976-8.855-8.855S53.253,42.932,58.133,42.932z
	 M87.47,42.932c4.88,0,8.855,3.976,8.855,8.855s-3.976,8.855-8.855,8.855s-8.855-3.976-8.855-8.855S82.59,42.932,87.47,42.932z
	 M116.747,42.932c4.88,0,8.855,3.976,8.855,8.855s-3.976,8.855-8.855,8.855c-4.88,0-8.855-3.976-8.855-8.855
	S111.867,42.932,116.747,42.932z M146.084,42.932c4.88,0,8.855,3.976,8.855,8.855s-3.976,8.855-8.855,8.855
	s-8.855-3.976-8.855-8.855S141.205,42.932,146.084,42.932z"/>
</svg>
