<?xml version="1.0" encoding="utf-8"?>
<!-- Generator: Adobe Illustrator 22.1.0, SVG Export Plug-In . SVG Version: 6.00 Build 0)  -->
<svg version="1.1" id="Layer_1" xmlns="http://www.w3.org/2000/svg" xmlns:xlink="http://www.w3.org/1999/xlink" x="0px" y="0px"
	 viewBox="0 0 175 65" style="enable-background:new 0 0 175 65;" xml:space="preserve">
<style type="text/css">
	.st0{fill:#FFFFFF;}
</style>
<g>
	<path class="st0" d="M65.498,28.69c-3.229-0.001-6.114,2.017-7.222,5.05c-1.108,3.034-0.201,6.435,2.27,8.516
		c2.47,2.08,5.977,2.394,8.778,0.786v1.026h3.856v-7.692C73.179,32.133,69.741,28.693,65.498,28.69z M65.498,40.223
		c-2.125,0-3.846-1.722-3.846-3.846s1.722-3.846,3.846-3.846c2.125,0,3.846,1.722,3.846,3.846S67.623,40.223,65.498,40.223z"/>
	<path class="st0" d="M86.298,32.663c1.621-0.37,3.294,0.352,4.137,1.786l3.237-2.134c-1.817-2.911-5.342-4.267-8.642-3.322
		c-3.3,0.945-5.572,3.961-5.572,7.393c0,3.432,2.274,6.448,5.572,7.393c3.298,0.945,6.825-0.411,8.642-3.322L90.43,38.32
		c-0.104,0.178-0.223,0.347-0.356,0.506c-1.066,1.276-2.836,1.714-4.374,1.083c-1.539-0.631-2.49-2.185-2.353-3.843
		C83.483,34.41,84.677,33.033,86.298,32.663z"/>
	<polygon class="st0" points="74.394,43.907 74.394,44.068 78.247,44.068 78.247,22.922 74.394,22.922 	"/>
	<path class="st0" d="M26.113,28.931c-3.97-0.944-7.984,1.383-9.137,5.296s0.958,8.046,4.806,9.404
		c3.847,1.358,8.085-0.532,9.645-4.302c0.015-0.035,0.027-0.071,0.04-0.105h-4.302l-0.001,0.004
		c-0.046,0.043-0.089,0.085-0.136,0.12c-1.019,0.86-2.385,1.184-3.681,0.873s-2.367-1.219-2.885-2.447h11.423
		C32.618,33.761,30.081,29.875,26.113,28.931z M20.59,34.81c0.597-1.543,2.081-2.56,3.735-2.56v-0.001
		c1.654,0.001,3.139,1.018,3.735,2.562L20.59,34.81C20.59,34.811,20.59,34.81,20.59,34.81z"/>
	<path class="st0" d="M13.404,36.133c3.204-2.348,4.332-6.616,2.706-10.241c-1.625-3.625-5.562-5.622-9.447-4.791
		C2.779,21.931,0.001,25.362,0,29.334v14.728h3.856V37.75h4.579c0.467-0.002,0.932-0.042,1.392-0.12l3.548,6.429h4.402l-2.066-3.747
		L13.404,36.133z M12.663,31.067c-0.708,1.713-2.378,2.83-4.232,2.83H3.852v-0.001v-4.561c-0.006-1.854,1.105-3.529,2.816-4.242
		s3.682-0.327,4.995,0.982C12.976,27.383,13.371,29.353,12.663,31.067z"/>
	<path class="st0" d="M40.06,28.766c-3.714,0-6.738,2.984-6.788,6.698v8.603h3.856v-8.603c0.033-1.596,1.336-2.873,2.933-2.873
		s2.9,1.277,2.933,2.873v8.603h3.856v-8.603C46.798,31.751,43.774,28.766,40.06,28.766z"/>
	<path class="st0" d="M54.797,40.212c-1.612-0.003-2.915-1.312-2.911-2.924c0-0.003,0-0.007,0-0.01v-4.714h4.837v-3.856h-4.837
		v-3.842H48.03v12.412c-0.006,3.743,3.024,6.783,6.768,6.789l0,0c1.178,0.001,2.336-0.311,3.355-0.902l-2.16-3.213
		C55.616,40.122,55.209,40.211,54.797,40.212z"/>
	<polygon class="st0" points="17.779,44.063 17.779,44.063 17.78,44.06 17.776,44.06 	"/>
	<path class="st0" d="M142.215,35.526c1.229-0.306,2.513,0.232,3.155,1.324l2.434-1.603c-1.35-2.172-3.967-3.199-6.434-2.525
		c-2.467,0.673-4.2,2.887-4.259,5.443c-0.059,2.557,1.566,4.85,3.999,5.638c2.433,0.789,5.094-0.113,6.546-2.219l-2.421-1.623
		c-0.735,1.031-2.062,1.456-3.259,1.043c-1.198-0.412-1.981-1.563-1.926-2.828C140.105,36.91,140.986,35.831,142.215,35.526z"/>
	<circle class="st0" cx="134.268" cy="42.148" r="1.928"/>
	<path class="st0" d="M154.057,32.508c-3.194,0-5.783,2.589-5.783,5.784s2.589,5.784,5.783,5.784s5.784-2.589,5.784-5.784
		S157.252,32.508,154.057,32.508z M154.057,41.251c-1.634,0-2.96-1.325-2.96-2.96s1.325-2.96,2.96-2.96s2.96,1.325,2.96,2.96
		S155.692,41.251,154.057,41.251z"/>
	<path class="st0" d="M174.952,36.135c-0.237-1.548-1.302-2.842-2.774-3.374s-3.119-0.214-4.289,0.825
		c-0.782-0.699-1.793-1.085-2.843-1.084c-0.144,0-0.284,0.007-0.423,0.021c-0.031,0-0.063,0.01-0.094,0.013
		c-0.109,0.013-0.217,0.028-0.323,0.049l-0.084,0.02c-0.11,0.024-0.217,0.051-0.323,0.083l-0.062,0.02
		c-0.113,0.036-0.226,0.077-0.333,0.12l-0.036,0.016c-0.117,0.051-0.232,0.105-0.345,0.165l-0.012,0.006
		c-0.29,0.156-0.561,0.343-0.807,0.561l-0.012,0.024c-0.819,0.728-1.323,1.747-1.404,2.841l-0.016,0.031v7.599h2.843v-7.597
		c0.002-0.745,0.609-1.348,1.355-1.345l0,0h0.136c0.745-0.002,1.35,0.599,1.354,1.345v7.599h2.846v-7.599
		c0.002-0.745,0.609-1.348,1.355-1.345c0.003,0,0.007,0,0.01,0h0.135c0.745-0.002,1.351,0.599,1.355,1.345l0,0v7.599H175v-7.599
		C174.999,36.361,174.983,36.247,174.952,36.135z"/>
	<path class="st0" d="M117.671,28.701c-3.746,0.004-6.781,3.043-6.783,6.789v8.577h3.856V35.49c-0.001-1.618,1.309-2.93,2.927-2.933
		c0.383,0,0.762,0.076,1.116,0.224l1.553-3.53C119.497,28.888,118.589,28.7,117.671,28.701z"/>
	<path class="st0" d="M101.997,28.699c-3.229-0.001-6.114,2.017-7.222,5.05c-1.108,3.034-0.201,6.435,2.27,8.516
		c2.47,2.08,5.977,2.394,8.778,0.786v1.026h3.856v-7.692C109.678,32.141,106.239,28.701,101.997,28.699z M101.997,40.232
		L101.997,40.232L101.997,40.232L101.997,40.232c-1.556,0-2.958-0.936-3.554-2.374s-0.267-3.092,0.833-4.192
		c1.1-1.1,2.754-1.43,4.192-0.834c1.438,0.595,2.375,1.998,2.375,3.553C105.842,38.509,104.12,40.231,101.997,40.232z"/>
	<path class="st0" d="M126.372,34.854c0,0-1.163-0.175-1.67-0.481c-0.066-0.048-0.129-0.101-0.187-0.158
		c-0.01-0.015-0.021-0.027-0.035-0.037c-0.254-0.251-0.387-0.599-0.369-0.956l0.025-0.148c-0.006,0.025-0.011,0.049-0.015,0.074
		c0.003-0.021,0.007-0.047,0.015-0.076v0.002c0.002-0.013,0.004-0.027,0.008-0.039l-0.006,0.037
		c0.034-0.144,0.089-0.281,0.165-0.406c0.213-0.311,0.531-0.536,0.896-0.635c0.238-0.061,0.484-0.088,0.73-0.079
		c1.021,0.026,2.041,0.376,2.713,0.663l1.639-2.914c-1.061-0.459-3.432-1.325-5.422-0.932c-2.476,0.306-4.281,2.003-4.438,4.178
		c-0.12,1.738,0.834,3.327,2.452,4.231c0.07,0.04,0.201,0.109,0.37,0.185l0.108,0.048c0.468,0.208,1.15,0.462,1.672,0.511
		c0.375,0.029,0.746,0.084,1.113,0.166c0.708,0.217,1.199,0.79,1.153,1.429l-0.025,0.147c0.004-0.024,0.01-0.048,0.013-0.072
		c-0.003,0.021-0.007,0.047-0.015,0.076l0.001-0.003c-0.003,0.013-0.004,0.028-0.008,0.042l0.006-0.037
		c-0.034,0.144-0.089,0.281-0.165,0.406c-0.213,0.311-0.531,0.536-0.896,0.635c-0.236,0.061-0.479,0.086-0.723,0.079
		c-1.746-0.043-3.495-1.038-3.495-1.038l-1.893,2.756l0.469,0.272c0,0,3.328,1.721,5.988,1.192c2.476-0.306,4.281-2.003,4.438-4.178
		C131.157,37.378,129.241,35.259,126.372,34.854z"/>
</g>
</svg>
