<svg xmlns="http://www.w3.org/2000/svg" viewBox="0 0 275.1 425.2"><style type="text/css">
	.st0{fill:#00DD99;}
</style><path class="st0" d="M260.3 114.9c-18-3.2-32.1-17.4-35.1-35.4h12.6c12.5 0.1 22.5 10.2 22.5 22.7V114.9zM172 22.7v41.3h-68.4V22.7H172zM15.3 101.8c0-12.5 10-22.6 22.5-22.7h12.6c-3 18.1-17.1 32.2-35.1 35.4V101.8zM237.8 64.1h-50.9V19.5c2.3-2.1 3.6-5.1 3.6-8.2 0.1-6.2-4.9-11.3-11-11.4 -0.1 0-0.1 0-0.2 0H95.9c-6.2 0-11.2 5-11.3 11.1 0 0.1 0 0.1 0 0.2 -0.1 3.1 1.3 6.1 3.6 8.2v44.5H37.4C16.7 64.1 0 80.9 0 101.6c0 0.1 0 0.1 0 0.2v287.6c0 8.2 6.6 14.9 14.9 15h18.5v4.5c-0.1 9 7.1 16.3 16.1 16.4 0 0 0.1 0 0.1 0 9 0 15.8-7.3 15.8-16.4v-4.5h144.5v4.5c-0.1 9 7.1 16.3 16.1 16.4 0 0 0.1 0 0.1 0 9 0 15.8-7.3 15.8-16.4v-4.5h18.5c8.2-0.1 14.8-6.8 14.9-15V101.8c0.1-20.7-16.5-37.6-37.2-37.7C237.9 64.1 237.8 64.1 237.8 64.1L237.8 64.1z"/></svg>
