<svg id="Layer_1" data-name="Layer 1" xmlns="http://www.w3.org/2000/svg" viewBox="0 0 50 30">
  <defs>
    <style>
      .cls-1 {
        fill: #c6ccc9;
      }

      .cls-2 {
        fill: #fff;
        stroke: #b30000;
        stroke-width: 0.5px;
      }

      .cls-3 {
        fill: #0b3e36;
        fill-rule: evenodd;
      }
    </style>
  </defs>
  <title>American--</title>
  <g>
    <rect id="Rectangle" class="cls-1" width="50" height="30" rx="3.704"/>
    <rect class="cls-2" x="33.25" y="11.75" width="14.5" height="7"/>
    <path class="cls-3" d="M35.465,14.25a3.091,3.091,0,0,0,.555-.283,2.28,2.28,0,0,0,.495-.432h.33V17H36.38V14.18a1.257,1.257,0,0,1-.148.115,1.99,1.99,0,0,1-.19.115c-.068.037-.139.072-.215.105s-.147.062-.217.085Zm4.69.17a.867.867,0,0,1-.072.347,1.7,1.7,0,0,1-.193.33,3.273,3.273,0,0,1-.27.32q-.15.158-.3.308l-.2.2q-.112.115-.213.24a1.843,1.843,0,0,0-.167.24.4.4,0,0,0-.068.2h1.6V17h-2.1a.4.4,0,0,1-.005-.06v-.055a1.208,1.208,0,0,1,.078-.438,1.77,1.77,0,0,1,.2-.382,2.733,2.733,0,0,1,.28-.34q.155-.16.3-.31c.083-.08.163-.159.238-.238a2.46,2.46,0,0,0,.2-.235,1.123,1.123,0,0,0,.14-.242.66.66,0,0,0,.053-.265.611.611,0,0,0-.048-.255A.493.493,0,0,0,39.3,13.9a.81.81,0,0,0-.228-.032.823.823,0,0,0-.265.04A1.3,1.3,0,0,0,38.59,14a.91.91,0,0,0-.16.11c-.043.039-.077.068-.1.088l-.23-.33a1.277,1.277,0,0,1,.35-.26,1.556,1.556,0,0,1,.28-.11,1.2,1.2,0,0,1,.335-.045,1.165,1.165,0,0,1,.817.252A.924.924,0,0,1,40.155,14.42Zm1.615,2.24a.938.938,0,0,0,.638-.175.625.625,0,0,0-.1-1,.938.938,0,0,0-.3-.11,1.953,1.953,0,0,0-.352-.032h-.12v-.38H41.7a1.373,1.373,0,0,0,.258-.025.756.756,0,0,0,.242-.09.528.528,0,0,0,.18-.178.522.522,0,0,0,.07-.282.538.538,0,0,0-.05-.24.469.469,0,0,0-.132-.165.524.524,0,0,0-.191-.093.923.923,0,0,0-.227-.027,1.045,1.045,0,0,0-.407.07,1.8,1.8,0,0,0-.283.145l-.18-.355a1.648,1.648,0,0,1,.152-.088,1.786,1.786,0,0,1,.208-.087,2.025,2.025,0,0,1,.248-.068,1.377,1.377,0,0,1,.277-.027,1.491,1.491,0,0,1,.475.067.9.9,0,0,1,.33.19.782.782,0,0,1,.2.29,1,1,0,0,1,.065.363.714.714,0,0,1-.155.462,1.008,1.008,0,0,1-.375.293,1.133,1.133,0,0,1,.26.115.8.8,0,0,1,.217.19.994.994,0,0,1,.151.265.938.938,0,0,1,.057.335,1.1,1.1,0,0,1-.078.417.845.845,0,0,1-.239.333,1.186,1.186,0,0,1-.408.22,2.019,2.019,0,0,1-.847.06,2.514,2.514,0,0,1-.258-.05q-.12-.03-.21-.06a1.179,1.179,0,0,1-.13-.05l.09-.405a2.693,2.693,0,0,0,.282.105A1.572,1.572,0,0,0,41.77,16.66Zm1.89-.86a5.418,5.418,0,0,1,.26-.513c.11-.2.234-.4.372-.6s.287-.41.445-.61a6.358,6.358,0,0,1,.478-.54h.445v2.2h.41v.38h-.41V17h-.45v-.885H43.66Zm1.55-1.715q-.15.16-.3.357t-.3.413c-.1.143-.187.29-.272.44s-.161.3-.228.44h1.1Z"/>
    <path id="American-Express" class="cls-3" d="M4.055,6.527H3.047L2.908,7H2L3.08,4.137h.965L5.121,7H4.2Zm-.186-.619L3.553,4.879,3.238,5.908ZM5.4,4.137H6.559l.449,1.742.447-1.742h1.16V7H7.893V4.816L7.332,7H6.678L6.119,4.816V7H5.4Zm3.783,0h2.371v.611H10.064V5.2h1.377v.584H10.064v.565h1.528V7H9.178ZM12.08,7V4.137h1.475a2.144,2.144,0,0,1,.627.07.667.667,0,0,1,.349.261.786.786,0,0,1,.133.464.8.8,0,0,1-.1.411.788.788,0,0,1-.279.28,1.055,1.055,0,0,1-.31.113.88.88,0,0,1,.23.106.848.848,0,0,1,.142.15,1.116,1.116,0,0,1,.124.178L14.9,7h-1l-.472-.875a.674.674,0,0,0-.16-.221.373.373,0,0,0-.217-.066h-.078V7Zm.889-1.7h.373a1.34,1.34,0,0,0,.234-.039.236.236,0,0,0,.144-.09.293.293,0,0,0-.032-.379.538.538,0,0,0-.331-.074h-.388Zm2.246-1.16H16.1V7h-.887ZM18.643,5.83l.775.234a1.419,1.419,0,0,1-.246.545,1.065,1.065,0,0,1-.417.33,1.545,1.545,0,0,1-.634.112,1.835,1.835,0,0,1-.763-.136,1.205,1.205,0,0,1-.51-.478,1.609,1.609,0,0,1-.215-.875,1.486,1.486,0,0,1,.378-1.092,1.435,1.435,0,0,1,1.069-.382,1.453,1.453,0,0,1,.851.219,1.285,1.285,0,0,1,.46.672l-.782.173a.653.653,0,0,0-.086-.191.5.5,0,0,0-.181-.156.557.557,0,0,0-.7.187,1.029,1.029,0,0,0-.121.565,1.077,1.077,0,0,0,.144.653.569.569,0,0,0,.79.034A.877.877,0,0,0,18.643,5.83Zm2.966.7H20.6L20.463,7h-.9l1.076-2.863H21.6L22.676,7H21.75Zm-.185-.619-.317-1.029-.314,1.029Zm1.541-1.771h.826l1.078,1.584V4.137H25.7V7h-.834L23.8,5.428V7h-.832Zm4.658,0h2.371v.611H28.51V5.2h1.377v.584H28.51v.565h1.527V7H27.623Zm2.693,0h.975l.508.881.492-.881h.965l-.891,1.386L33.34,7h-.994l-.565-.92L31.215,7h-.988l.988-1.492Zm3.305,0h1.471a1.01,1.01,0,0,1,.72.228.86.86,0,0,1,.239.651.88.88,0,0,1-.261.677,1.129,1.129,0,0,1-.8.244H34.51V7h-.889Zm.889,1.22h.217a.56.56,0,0,0,.359-.088.289.289,0,0,0,.1-.228.319.319,0,0,0-.089-.229.47.47,0,0,0-.338-.093H34.51ZM36.525,7V4.137H38a2.144,2.144,0,0,1,.627.07.673.673,0,0,1,.35.261.884.884,0,0,1,.031.875.8.8,0,0,1-.279.28,1.074,1.074,0,0,1-.311.113.88.88,0,0,1,.23.106.848.848,0,0,1,.142.15,1.116,1.116,0,0,1,.124.178l.428.83h-1l-.473-.875a.674.674,0,0,0-.16-.221.373.373,0,0,0-.217-.066h-.078V7Zm.889-1.7h.373a1.325,1.325,0,0,0,.234-.039.236.236,0,0,0,.144-.09.289.289,0,0,0-.032-.379.537.537,0,0,0-.33-.074h-.389Zm2.209-1.16h2.371v.611H40.51V5.2h1.377v.584H40.51v.565h1.527V7H39.623Zm2.736,1.916L43.2,6a.644.644,0,0,0,.111.312.47.47,0,0,0,.391.174A.429.429,0,0,0,44,6.4.254.254,0,0,0,44,5.992a1.137,1.137,0,0,0-.453-.166,1.928,1.928,0,0,1-.83-.347.7.7,0,0,1-.25-.553.746.746,0,0,1,.128-.417.847.847,0,0,1,.384-.309,1.8,1.8,0,0,1,.7-.112,1.445,1.445,0,0,1,.837.2.88.88,0,0,1,.342.649l-.834.049a.389.389,0,0,0-.433-.369.354.354,0,0,0-.233.066.2.2,0,0,0-.078.159.162.162,0,0,0,.065.123.722.722,0,0,0,.3.1,3.784,3.784,0,0,1,.832.253.868.868,0,0,1,.365.318.8.8,0,0,1,.114.423.912.912,0,0,1-.152.508.958.958,0,0,1-.426.353,1.722,1.722,0,0,1-.69.12,1.419,1.419,0,0,1-1.011-.281A1.11,1.11,0,0,1,42.359,6.053Zm2.889,0L46.09,6a.634.634,0,0,0,.111.312.469.469,0,0,0,.391.174.43.43,0,0,0,.292-.089.256.256,0,0,0,.005-.405,1.137,1.137,0,0,0-.453-.166,1.939,1.939,0,0,1-.831-.347.7.7,0,0,1-.25-.553.754.754,0,0,1,.128-.417.855.855,0,0,1,.385-.309,1.794,1.794,0,0,1,.7-.112,1.44,1.44,0,0,1,.837.2.884.884,0,0,1,.343.649l-.834.049a.39.39,0,0,0-.434-.369.353.353,0,0,0-.232.066.2.2,0,0,0-.078.159.16.16,0,0,0,.064.123.734.734,0,0,0,.3.1,3.753,3.753,0,0,1,.831.253.862.862,0,0,1,.365.318.8.8,0,0,1,.115.423.9.9,0,0,1-.153.508.95.95,0,0,1-.425.353,1.728,1.728,0,0,1-.69.12,1.424,1.424,0,0,1-1.012-.281A1.114,1.114,0,0,1,45.248,6.053Z"/>
    <path class="cls-3" d="M4.67,24.9a1.258,1.258,0,0,1-.213.8A.936.936,0,0,1,3.89,26a2.577,2.577,0,0,1-.334.037c-.137.008-.3.012-.488.012q-.852,0-.851-.388a.36.36,0,0,1,.1-.252.315.315,0,0,1,.243-.105.86.86,0,0,1,.249.059.84.84,0,0,0,.248.06,2.506,2.506,0,0,0,.662-.053.454.454,0,0,0,.3-.493,1.077,1.077,0,0,0-.031-.308.216.216,0,0,0-.221-.151l-.292,0c-.071,0-.116,0-.135.005l-.064.011q-.043.008-.111.024a.911.911,0,0,1-.171.021.319.319,0,0,1-.131-.026.345.345,0,0,1-.109-.072.314.314,0,0,1-.073-.106.324.324,0,0,1-.026-.132.3.3,0,0,1,.251-.315,2.3,2.3,0,0,1,.445-.028c.054,0,.132,0,.235.011s.177.01.23.01q.2,0,.2-.441a.513.513,0,0,0-.15-.441,1,1,0,0,0-.48-.077c-.044,0-.2.011-.458.032-.019,0-.043.006-.074.012l-.112.026a.775.775,0,0,1-.2.032.273.273,0,0,1-.212-.091.317.317,0,0,1-.082-.221q0-.279.423-.374a3.247,3.247,0,0,1,.648-.049,2.1,2.1,0,0,1,.99.161.969.969,0,0,1,.371.9,1.2,1.2,0,0,1-.224.8.063.063,0,0,0-.007.021s.006.013.018.024a.653.653,0,0,1,.182.357A1.97,1.97,0,0,1,4.67,24.9Zm2.864-2.131-.018,2.943a.358.358,0,0,1-.091.245.3.3,0,0,1-.235.095.291.291,0,0,1-.332-.336q.014-1.337-.042-2.615-.01-.2-.231-.192l-1.137.007a.308.308,0,0,1-.235-.084.323.323,0,0,1-.087-.238.3.3,0,0,1,.09-.222.34.34,0,0,1,.228-.1,14.548,14.548,0,0,1,1.46.011,1.047,1.047,0,0,1,.468.091A.408.408,0,0,1,7.534,22.766ZM10.421,24.9a1.248,1.248,0,0,1-.252.879,1.159,1.159,0,0,1-.868.273c-.079,0-.176,0-.291-.011H8.937l-.217-.006a1.257,1.257,0,0,1-.462-.07.363.363,0,0,1-.245-.367A.32.32,0,0,1,8.1,25.38a.278.278,0,0,1,.215-.094,2.144,2.144,0,0,1,.375.073,2.154,2.154,0,0,0,.427.07.868.868,0,0,0,.532-.108.749.749,0,0,0,.119-.518.323.323,0,0,0-.081-.217.279.279,0,0,0-.2-.1c-.159-.009-.288-.015-.387-.019s-.171,0-.215,0c-.028,0-.06,0-.1,0s-.078.01-.125.019-.086.016-.12.02-.063,0-.086,0a.405.405,0,0,1-.346-.13.575.575,0,0,1-.091-.364q0-.111,0-.285c0-.115.006-.25.011-.4s.008-.289.01-.4,0-.212,0-.289a.408.408,0,0,1,.077-.256.271.271,0,0,1,.234-.119c.03,0,.067,0,.11.006s.094.01.152.019.114.016.158.019.082,0,.112,0q.158,0,.819-.063l.06-.008c.028,0,.063-.01.105-.02l.09-.012c.029,0,.053,0,.074,0a.305.305,0,0,1,.131.028.335.335,0,0,1,.105.075.369.369,0,0,1,.07.11.336.336,0,0,1,.026.133.272.272,0,0,1-.171.284.853.853,0,0,1-.332.045,7.3,7.3,0,0,0-1.04.053c-.07.009-.107.043-.112.1l-.021.312q-.008.1-.012.177c0,.052,0,.1,0,.138,0,.114.024.183.073.206a.91.91,0,0,0,.228.014h.409l.1,0,.1,0,.07,0a.679.679,0,0,1,.634.311A1.522,1.522,0,0,1,10.421,24.9Zm2.891.816a.312.312,0,0,1-.091.24.329.329,0,0,1-.242.092.316.316,0,0,1-.236-.087.326.326,0,0,1-.085-.238l-.011-1.169c0-.063-.041-.095-.123-.095-.021,0-.047,0-.078,0l-.111.01c-.081.007-.143.011-.185.011a1.558,1.558,0,0,1-.956-.217,1.17,1.17,0,0,1-.293-.928,1.11,1.11,0,0,1,.29-.892,1.505,1.505,0,0,1,.934-.214,1.52,1.52,0,0,1,.907.2,1.056,1.056,0,0,1,.266.861q-.008.512,0,1.113T13.312,25.72Zm-.668-2.072v-.28a.633.633,0,0,0-.092-.417.65.65,0,0,0-.423-.091.967.967,0,0,0-.462.07c-.082.061-.122.2-.122.427s.038.345.115.4a.777.777,0,0,0,.427.077h.13c.044,0,.091,0,.141,0s.1-.01.163-.02a.15.15,0,0,0,.1-.04A.241.241,0,0,0,12.644,23.648Zm5.512,1.288a1.148,1.148,0,0,1-.273.906,1.568,1.568,0,0,1-.935.2,1.521,1.521,0,0,1-.927-.2,1.158,1.158,0,0,1-.273-.9.884.884,0,0,1,.115-.539,1.938,1.938,0,0,1,.424-.273.708.708,0,0,1-.445-.3,1.191,1.191,0,0,1-.087-.542,1.023,1.023,0,0,1,.308-.858,1.536,1.536,0,0,1,.9-.2,1.451,1.451,0,0,1,.9.21,1.071,1.071,0,0,1,.287.864,1.051,1.051,0,0,1-.091.522.852.852,0,0,1-.43.283,1.084,1.084,0,0,1,.441.294A1.1,1.1,0,0,1,18.156,24.936Zm-.665-1.68a.372.372,0,0,0-.14-.34.713.713,0,0,0-.375-.073.763.763,0,0,0-.409.077.413.413,0,0,0-.147.374.46.46,0,0,0,.091.3.768.768,0,0,0,.259.168l.21.095c.033-.016.066-.032.1-.046l.1-.042a.653.653,0,0,0,.185-.112A.529.529,0,0,0,17.491,23.256Zm.014,1.634q0-.258-.525-.458c-.089.037-.163.071-.224.1a1.006,1.006,0,0,0-.14.078.4.4,0,0,0-.206.319q0,.5.549.5a.652.652,0,0,0,.434-.1A.6.6,0,0,0,17.505,24.89Zm3.539-2.124-.018,2.943a.358.358,0,0,1-.091.245.3.3,0,0,1-.234.095.292.292,0,0,1-.333-.336q.014-1.337-.042-2.615-.011-.2-.231-.192l-1.137.007a.308.308,0,0,1-.235-.084.323.323,0,0,1-.088-.238.3.3,0,0,1,.091-.222.34.34,0,0,1,.228-.1,14.526,14.526,0,0,1,1.459.011,1.049,1.049,0,0,1,.469.091A.408.408,0,0,1,21.044,22.766Zm2.887,2.17a1.091,1.091,0,0,1-.308.882,1.415,1.415,0,0,1-.914.234q-1.119,0-1.14-1.064l-.046-2.429a.31.31,0,0,1,.091-.241.331.331,0,0,1,.241-.091.322.322,0,0,1,.239.089.331.331,0,0,1,.087.24l.017,1.169a.092.092,0,0,0,.1.1c.019,0,.043,0,.072,0l.1-.013.1-.012c.029,0,.053,0,.071,0a1.624,1.624,0,0,1,.97.213A1.13,1.13,0,0,1,23.931,24.936Zm-.644-.021a.976.976,0,0,0-.024-.233.332.332,0,0,0-.083-.154.342.342,0,0,0-.15-.084.875.875,0,0,0-.229-.026q-.049,0-.459.021a.114.114,0,0,0-.091.058.214.214,0,0,0-.035.117v.3a.92.92,0,0,0,.045.287q.088.215.462.214a.808.808,0,0,0,.441-.081A.53.53,0,0,0,23.287,24.915Zm3.532-.011a1.243,1.243,0,0,1-.253.879,1.156,1.156,0,0,1-.868.273c-.079,0-.176,0-.29-.011h-.074l-.216-.006a1.249,1.249,0,0,1-.462-.07.362.362,0,0,1-.246-.367.32.32,0,0,1,.086-.221.278.278,0,0,1,.216-.094,2.14,2.14,0,0,1,.374.073,2.176,2.176,0,0,0,.427.07.866.866,0,0,0,.532-.108.749.749,0,0,0,.119-.518.323.323,0,0,0-.081-.217.277.277,0,0,0-.2-.1c-.159-.009-.288-.015-.387-.019s-.171,0-.216,0c-.028,0-.06,0-.1,0s-.077.01-.124.019-.087.016-.121.02-.062,0-.086,0a.407.407,0,0,1-.346-.13.575.575,0,0,1-.091-.364q0-.111,0-.285c0-.115.006-.25.011-.4s.008-.289.01-.4,0-.212,0-.289a.414.414,0,0,1,.077-.256.271.271,0,0,1,.234-.119q.046,0,.111.006c.043,0,.094.01.152.019s.113.016.158.019.081,0,.111,0c.106,0,.378-.021.819-.063l.06-.008c.028,0,.063-.01.1-.02l.091-.012a.724.724,0,0,1,.074,0,.308.308,0,0,1,.131.028.335.335,0,0,1,.105.075.389.389,0,0,1,.07.11.354.354,0,0,1,.026.133.271.271,0,0,1-.172.284.85.85,0,0,1-.332.045,7.31,7.31,0,0,0-1.04.053c-.069.009-.107.043-.111.1l-.021.312c0,.065-.009.124-.013.177s-.005.1-.005.138c0,.114.025.183.074.206a.9.9,0,0,0,.227.014h.409l.1,0,.1,0,.07,0a.678.678,0,0,1,.633.311A1.521,1.521,0,0,1,26.819,24.9Zm2.943-.717c0,.147-.1.233-.311.259l-.207.021c-.061.012-.092.029-.095.052a2.6,2.6,0,0,0-.014.357c0,.047,0,.105,0,.175s0,.153,0,.249,0,.175.006.245,0,.128,0,.175a.343.343,0,0,1-.082.234.271.271,0,0,1-.215.095.358.358,0,0,1-.124-.023.326.326,0,0,1-.107-.063.314.314,0,0,1-.073-.1.257.257,0,0,1-.028-.119c0-.035,0-.079,0-.131l.012-.188.012-.189c0-.053.006-.1.006-.133,0-.3,0-.481-.014-.535l-.007-.032c0-.011-.006-.024-.011-.038a.362.362,0,0,0-.119-.035,3.257,3.257,0,0,0-.578-.039.533.533,0,0,0-.087.013.5.5,0,0,1-.091.012q-.3,0-.318-.4-.018-.37-.027-.736c-.006-.244-.008-.49-.008-.737a.4.4,0,0,1,.078-.249.271.271,0,0,1,.226-.1.277.277,0,0,1,.29.171,1.072,1.072,0,0,1,.039.35c0,.052,0,.114,0,.186s0,.157-.01.255-.008.184-.011.256,0,.134,0,.185a.258.258,0,0,0,.04.168.219.219,0,0,0,.153.053.485.485,0,0,0,.063,0h.108c.161,0,.254-.016.28-.049a.4.4,0,0,0,.025-.2q0-.182-.021-.525l-.013-.306c0-.087,0-.161,0-.222a.288.288,0,0,1,.322-.329.262.262,0,0,1,.242.108.519.519,0,0,1,.055.27c0,.107,0,.264-.01.469,0,.1,0,.192,0,.269s0,.143,0,.2c0,.215.041.322.122.322a.421.421,0,0,0,.141-.022.319.319,0,0,1,.1-.023.226.226,0,0,1,.2.126A.468.468,0,0,1,29.762,24.187Zm2.856.71a1.252,1.252,0,0,1-.214.8.936.936,0,0,1-.567.308,2.556,2.556,0,0,1-.334.037c-.136.008-.3.012-.488.012q-.851,0-.851-.388a.361.361,0,0,1,.1-.252.315.315,0,0,1,.243-.105.868.868,0,0,1,.249.059.833.833,0,0,0,.248.06,2.517,2.517,0,0,0,.662-.053.454.454,0,0,0,.3-.493,1.033,1.033,0,0,0-.032-.308.215.215,0,0,0-.22-.151l-.292,0c-.071,0-.116,0-.135.005l-.065.011c-.029,0-.066.013-.11.024a.911.911,0,0,1-.172.021.323.323,0,0,1-.131-.026.33.33,0,0,1-.108-.072.317.317,0,0,1-.074-.106.341.341,0,0,1-.026-.132.3.3,0,0,1,.252-.315,2.3,2.3,0,0,1,.445-.028c.053,0,.131,0,.234.011s.177.01.231.01q.2,0,.2-.441a.511.511,0,0,0-.151-.441.993.993,0,0,0-.479-.077c-.044,0-.2.011-.458.032-.019,0-.044.006-.074.012l-.112.026a.782.782,0,0,1-.2.032.27.27,0,0,1-.211-.091.318.318,0,0,1-.083-.221c0-.186.142-.311.424-.374a3.24,3.24,0,0,1,.648-.049,2.1,2.1,0,0,1,.99.161.971.971,0,0,1,.371.9,1.2,1.2,0,0,1-.224.8.046.046,0,0,0-.007.021s.006.013.017.024a.647.647,0,0,1,.182.357A1.889,1.889,0,0,1,32.618,24.9Zm4.851.847a.288.288,0,0,1-.087.219.314.314,0,0,1-.224.082.282.282,0,0,1-.053-.005l-.073-.012a.742.742,0,0,0-.12-.018h-1.5a.39.39,0,0,1-.268-.077.358.358,0,0,1-.1-.255c-.012-.224-.021-.4-.028-.529s-.011-.212-.011-.252a1.222,1.222,0,0,1,.091-.528.667.667,0,0,1,.421-.319c.079-.023.176-.046.292-.068s.251-.044.408-.065q.594-.08.594-.518,0-.374-.175-.476a1.307,1.307,0,0,0-.535-.066,1.256,1.256,0,0,0-.43.063,1.253,1.253,0,0,1-.315.084.234.234,0,0,1-.211-.119.463.463,0,0,1-.059-.235q0-.423,1.092-.423a1.668,1.668,0,0,1,.952.2,1.056,1.056,0,0,1,.332.9.985.985,0,0,1-.871,1.106l-.184.021-.183.018a1.12,1.12,0,0,0-.375.1.322.322,0,0,0-.175.294q0,.446.066.48a.348.348,0,0,0,.14.024c.073,0,.145.009.216.011s.143,0,.215,0c.294,0,.475,0,.542-.01l.049-.009A.885.885,0,0,0,37,25.349l.078-.011.063,0a.3.3,0,0,1,.252.129A.5.5,0,0,1,37.469,25.744Zm2.884-.052a.333.333,0,0,1-.175.294.24.24,0,0,1-.116.028l-1.861,0a.281.281,0,0,1-.221-.089.326.326,0,0,1-.08-.229q0-.329.283-.347c.1.007.253.011.458.011.087,0,.134-.027.141-.074.016-.123.028-.273.036-.449s.013-.381.013-.615-.014-.576-.042-1.029a.287.287,0,0,0-.141-.206.307.307,0,0,1-.129-.256.454.454,0,0,1,.2-.36.6.6,0,0,1,.389-.151q.365,0,.364.294c0,.026,0,.066,0,.121s0,.127,0,.215c0,.07,0,.133,0,.189v2.247c0,.066.088.1.263.091.056,0,.125,0,.207-.01l.1-.011.041,0a.252.252,0,0,1,.193.115A.373.373,0,0,1,40.353,25.692Zm2.888-2.167c0,.066,0,.147,0,.245s0,.214,0,.347,0,.248,0,.345v.243a2.9,2.9,0,0,1-.08.791.673.673,0,0,1-.358.427,1.91,1.91,0,0,1-.8.126,1.3,1.3,0,0,1-.99-.284,1.662,1.662,0,0,1-.22-1.025v-1.2a1.644,1.644,0,0,1,.23-1.032,1.342,1.342,0,0,1,1-.28,1.274,1.274,0,0,1,.987.3A1.564,1.564,0,0,1,43.241,23.525Zm-.658-.14a.552.552,0,0,0-.126-.43A.773.773,0,0,0,42,22.86a1.008,1.008,0,0,0-.353.046.31.31,0,0,0-.2.259,1.231,1.231,0,0,0-.011.178v.072c0,.029,0,.064,0,.1s0,.076,0,.109v.329q0,.144,0,.339v.578a.57.57,0,0,0,.115.43.737.737,0,0,0,.458.1.675.675,0,0,0,.445-.105.6.6,0,0,0,.112-.434c0-.081,0-.183,0-.306s0-.266.005-.432Q42.582,23.631,42.583,23.385Zm3.545.14c0,.066,0,.147,0,.245s0,.214,0,.347,0,.248,0,.345v.243a2.851,2.851,0,0,1-.081.791.671.671,0,0,1-.357.427,1.916,1.916,0,0,1-.8.126,1.3,1.3,0,0,1-.991-.284,1.662,1.662,0,0,1-.22-1.025v-1.2a1.636,1.636,0,0,1,.231-1.032,1.34,1.34,0,0,1,1-.28,1.277,1.277,0,0,1,.987.3A1.565,1.565,0,0,1,46.128,23.525Zm-.658-.14a.552.552,0,0,0-.126-.43.772.772,0,0,0-.458-.095,1.014,1.014,0,0,0-.354.046.312.312,0,0,0-.2.259,1.251,1.251,0,0,0-.01.178v.072c0,.029,0,.064,0,.1s0,.076,0,.109v.329c0,.1,0,.209,0,.339v.578a.569.569,0,0,0,.116.43.733.733,0,0,0,.458.1.67.67,0,0,0,.444-.105.6.6,0,0,0,.112-.434c0-.081,0-.183,0-.306s0-.266.005-.432Q45.47,23.631,45.47,23.385Zm3.545,2.307a.328.328,0,0,1-.084.222.322.322,0,0,1-.091.072.233.233,0,0,1-.115.028l-1.862,0a.279.279,0,0,1-.22-.089.327.327,0,0,1-.081-.229c0-.219.094-.335.284-.347.1.007.253.011.458.011.086,0,.133-.027.14-.074.016-.123.029-.273.037-.449s.012-.381.012-.615-.014-.576-.042-1.029a.285.285,0,0,0-.14-.206.308.308,0,0,1-.13-.256.455.455,0,0,1,.2-.36.6.6,0,0,1,.389-.151q.363,0,.363.294c0,.026,0,.066,0,.121s0,.127,0,.215q0,.1,0,.189v2.247c0,.066.087.1.263.091.056,0,.124,0,.206-.01l.1-.011.042,0a.249.249,0,0,1,.192.115A.373.373,0,0,1,49.015,25.692Z"/>
  </g>
</svg>
