<svg id="Layer_1" data-name="Layer 1" xmlns="http://www.w3.org/2000/svg" viewBox="0 0 50 30">
  <defs>
    <style>
      .cls-1 {
        fill: #c6ccc9;
      }

      .cls-2 {
        fill: #203330;
      }

      .cls-3 {
        fill: #fff;
      }

      .cls-4 {
        fill: none;
        stroke: #b30000;
        stroke-width: 0.5px;
      }

      .cls-5 {
        fill: #0b3e36;
        fill-rule: evenodd;
      }
    </style>
  </defs>
  <title>Visa---01</title>
  <rect id="Rectangle" class="cls-1" width="50" height="30" rx="3.704"/>
  <rect class="cls-2" y="5" width="50" height="5"/>
  <rect class="cls-3" x="3" y="18" width="26" height="7"/>
  <rect id="Rectangle-Copy-3" class="cls-3" x="33" y="18" width="14" height="7"/>
  <rect class="cls-4" x="32.25" y="17.25" width="15.5" height="8.5"/>
  <path class="cls-5" d="M34.651,20.15a4.356,4.356,0,0,0,.777-.4,3.177,3.177,0,0,0,.693-.605h.462V24h-.651V20.052a1.91,1.91,0,0,1-.207.161,2.475,2.475,0,0,1-.266.161q-.143.077-.3.147c-.1.047-.207.086-.3.119Zm6.566.238a1.229,1.229,0,0,1-.1.486,2.346,2.346,0,0,1-.27.462,4.615,4.615,0,0,1-.378.448q-.21.221-.42.431l-.277.28q-.15.16-.3.336a3.113,3.113,0,0,0-.235.336.574.574,0,0,0-.094.28h2.233V24h-2.94a.476.476,0,0,1-.007-.084v-.077a1.69,1.69,0,0,1,.109-.613,2.469,2.469,0,0,1,.283-.535,3.8,3.8,0,0,1,.392-.476q.217-.224.427-.434c.117-.112.227-.223.332-.333a3.148,3.148,0,0,0,.281-.329,1.625,1.625,0,0,0,.2-.339.948.948,0,0,0,.073-.371.874.874,0,0,0-.066-.357.693.693,0,0,0-.442-.389,1.1,1.1,0,0,0-.318-.045,1.2,1.2,0,0,0-.371.056,1.808,1.808,0,0,0-.3.129,1.272,1.272,0,0,0-.224.154l-.14.123-.322-.462a1.706,1.706,0,0,1,.189-.172,1.886,1.886,0,0,1,.3-.192,2.128,2.128,0,0,1,.392-.154,1.689,1.689,0,0,1,.469-.063,1.632,1.632,0,0,1,1.144.353A1.291,1.291,0,0,1,41.217,20.388Zm2.261,3.136a1.316,1.316,0,0,0,.892-.245.942.942,0,0,0,.158-1.106.871.871,0,0,0-.294-.291,1.281,1.281,0,0,0-.423-.154,2.726,2.726,0,0,0-.494-.045h-.168v-.532h.231a1.989,1.989,0,0,0,.361-.035,1.029,1.029,0,0,0,.339-.126.788.788,0,0,0,.28-.98.674.674,0,0,0-.186-.231.692.692,0,0,0-.265-.13,1.319,1.319,0,0,0-.319-.038,1.5,1.5,0,0,0-.57.1,2.41,2.41,0,0,0-.4.2l-.252-.5q.084-.056.213-.123a2.322,2.322,0,0,1,.291-.122,2.972,2.972,0,0,1,.346-.1,1.951,1.951,0,0,1,.389-.038,2.082,2.082,0,0,1,.665.094,1.244,1.244,0,0,1,.462.266,1.112,1.112,0,0,1,.273.406,1.376,1.376,0,0,1,.091.508,1,1,0,0,1-.217.647,1.423,1.423,0,0,1-.525.41,1.559,1.559,0,0,1,.364.161,1.122,1.122,0,0,1,.3.266,1.336,1.336,0,0,1,.21.371,1.294,1.294,0,0,1,.081.469,1.537,1.537,0,0,1-.109.584,1.2,1.2,0,0,1-.335.466,1.657,1.657,0,0,1-.571.308,2.828,2.828,0,0,1-1.186.084c-.129-.019-.249-.042-.361-.07s-.21-.056-.294-.084a1.485,1.485,0,0,1-.182-.07l.126-.567a4.075,4.075,0,0,0,.4.147A2.174,2.174,0,0,0,43.478,23.524Z"/>
</svg>
